[1;37m[INFO]  Initializing DPDK. This will take a few seconds...[0m
EAL: Detected 32 lcore(s)
EAL: Probing VFIO support...
EAL: PCI device 0000:01:00.0 on NUMA socket 0
EAL:   probe driver: 8086:10fb rte_ixgbe_pmd
EAL: PCI device 0000:01:00.1 on NUMA socket 0
EAL:   probe driver: 8086:10fb rte_ixgbe_pmd
EAL: PCI device 0000:03:00.0 on NUMA socket 0
EAL:   probe driver: 8086:1521 rte_igb_pmd
EAL: PCI device 0000:03:00.1 on NUMA socket 0
EAL:   probe driver: 8086:1521 rte_igb_pmd
[1;37m[INFO]  Found 2 usable devices:[0m
   Device 0: 0C:C4:7A:B7:60:3C ([0;32mIntel Corporation 82599ES 10-Gigabit SFI/SFP+ Network Connection[0m)
   Device 1: 0C:C4:7A:B7:60:3D ([0;32mIntel Corporation 82599ES 10-Gigabit SFI/SFP+ Network Connection[0m)
[1;37m[INFO]  Waiting for devices to come up...[0m
[1;37m[INFO]  Device 1 (0C:C4:7A:B7:60:3D) is up: 10000 MBit/s[0m
[1;37m[INFO]  Device 0 (0C:C4:7A:B7:60:3C) is up: 10000 MBit/s[0m
[1;37m[INFO]  [0;32m2 devices are up.[0m[0m
[1;37m[INFO]  Filter with dst_ip 3422945290 and mask 4294967295[0m
[1;37m[INFO]  Filter with dst_ip 3372613642 and mask 4294967295[0m
[1;37m[INFO]  Filter with dst_ip 3355770890 and mask 4294967295[0m
[1;37m[INFO]  Filter with dst_ip 3389325322 and mask 4294967295[0m
[1;37m[INFO]  Filter with dst_ip 3406102538 and mask 4294967295[0m
[1;37m[INFO]  Filter with dst_ip 3422945290 and mask 4294967295[0m
[1;37m[INFO]  Filter with dst_ip 3372613642 and mask 4294967295[0m
[1;37m[INFO]  Filter with dst_ip 3355770890 and mask 4294967295[0m
[1;37m[INFO]  Filter with dst_ip 3389325322 and mask 4294967295[0m
[1;37m[INFO]  Filter with dst_ip 3406102538 and mask 4294967295[0m
[1;31m[ERROR] rxControlProcess-2: Cpg round jumped from -100 to 1 in one iteration.[0m
[1;31m[ERROR] rxControlStats-2: Cpg round jumped from -100 to 1 in one iteration.[0m
[1;31m[ERROR] TxSlave txTask-1: Cpg round jumped from -100 to 1 in one iteration.[0m
[1;31m[ERROR] TxSlave txTask-1: Cpg round jumped from 1 to 3 in one iteration.[0m
[1;31m[ERROR] TxSlave txTask-1: Cpg round jumped from 3 to 5 in one iteration.[0m
[1;31m[ERROR] ip.PROTO_CONTROL_1 packet from 1 recvd in 6[0m
[1;31m[ERROR] ip.PROTO_CONTROL_1 packet from 1 recvd in 6[0m
[1;31m[ERROR] ip.PROTO_CONTROL_1 packet from 1 recvd in 6[0m
[1;31m[ERROR] ip.PROTO_CONTROL_1 packet from 1 recvd in 6[0m
[1;31m[ERROR] ip.PROTO_CONTROL_1 packet from 1 recvd in 6[0m
[1;31m[ERROR] ip.PROTO_CONTROL_2_fwd packet from 7 recvd in 8[0m
[1;31m[ERROR] ip.PROTO_CONTROL_2_fwd packet from 7 recvd in 8[0m
[1;31m[ERROR] ip.PROTO_CONTROL_2_fwd packet from 7 recvd in 8[0m
[1;31m[ERROR] ip.PROTO_CONTROL_2_fwd packet from 7 recvd in 8[0m
[1;31m[ERROR] ip.PROTO_CONTROL_2_fwd packet from 7 recvd in 8[0m
[1;31m[ERROR] ip.PROTO_CONTROL_2_fwd packet from 7 recvd in 8[0m
[1;31m[ERROR] ip.PROTO_CONTROL_2_rvs packet from 17 recvd in 18[0m
[1;31m[ERROR] ip.PROTO_CONTROL_2_fwd packet from 17 recvd in 18[0m
[1;31m[ERROR] ip.PROTO_CONTROL_2_fwd packet from 17 recvd in 18[0m
[1;31m[ERROR] ip.PROTO_CONTROL_2_fwd packet from 17 recvd in 18[0m
[1;31m[ERROR] ip.PROTO_CONTROL_2_fwd packet from 17 recvd in 18[0m
[1;31m[ERROR] ip.PROTO_CONTROL_2_fwd packet from 17 recvd in 18[0m
[1;31m[ERROR] ip.PROTO_CONTROL_2_rvs packet from 47 recvd in 48[0m
[1;31m[ERROR] ip.PROTO_CONTROL_2_fwd packet from 47 recvd in 48[0m
[1;31m[ERROR] ip.PROTO_CONTROL_2_fwd packet from 47 recvd in 48[0m
[1;31m[ERROR] ip.PROTO_CONTROL_2_fwd packet from 47 recvd in 48[0m
[1;31m[ERROR] ip.PROTO_CONTROL_2_fwd packet from 47 recvd in 48[0m
[1;31m[ERROR] ip.PROTO_CONTROL_2_fwd packet from 47 recvd in 48[0m
[1;31m[ERROR] ip.PROTO_CONTROL_2_fwd packet from 52 recvd in 53[0m
[1;31m[ERROR] ip.PROTO_CONTROL_2_fwd packet from 52 recvd in 53[0m
[1;31m[ERROR] ip.PROTO_CONTROL_2_fwd packet from 52 recvd in 53[0m
[1;31m[ERROR] ip.PROTO_CONTROL_2_fwd packet from 387 recvd in 388[0m
[1;31m[ERROR] ip.PROTO_CONTROL_2_fwd packet from 387 recvd in 388[0m
[1;31m[ERROR] ip.PROTO_CONTROL_2_fwd packet from 507 recvd in 508[0m
[1;31m[ERROR] ip.PROTO_CONTROL_2_fwd packet from 507 recvd in 508[0m
[1;31m[ERROR] ip.PROTO_CONTROL_2_fwd packet from 507 recvd in 508[0m
[1;31m[ERROR] ip.PROTO_CONTROL_2_fwd packet from 507 recvd in 508[0m
[1;31m[ERROR] ip.PROTO_CONTROL_2_fwd packet from 507 recvd in 508[0m
[1;31m[ERROR] ip.PROTO_CONTROL_2_fwd packet from 507 recvd in 508[0m
[1;31m[ERROR] ip.PROTO_CONTROL_2_fwd packet from 507 recvd in 508[0m
[1;31m[ERROR] ip.PROTO_CONTROL_2_fwd packet from 507 recvd in 508[0m
[1;31m[ERROR] ip.PROTO_CONTROL_2_fwd packet from 507 recvd in 508[0m
[1;31m[ERROR] ip.PROTO_CONTROL_2_fwd packet from 507 recvd in 508[0m
[1;37m[INFO]  txTask-1: Sync stats for [0m
[1;37m[INFO]  txTask-1 got 1867 ip.PROTO_CONTROL_2_rvs packets in the correct round and 2 packets in the incorrect round with max_async 1[0m
[1;37m[INFO]  txTask-1 got 1868 ip.PROTO_CONTROL_4 packets in the correct round[0m
[1;37m[INFO]  txTask-1: Sample out of sync stats[0m
[1;37m[INFO]  txTask-1: Packet counts by proto[0m
[1;37m[INFO]  txTask-1: 1869 packets of my flows of type ip.PROTO_CONTROL_2_rvs[0m
[1;37m[INFO]  txTask-1: 1868 packets of my flows of type ip.PROTO_CONTROL_4[0m
[1;37m[INFO]  rxControlStats-2: Sync stats for [0m
[1;37m[INFO]  rxControlProcess-2: Sync stats for [0m
[1;37m[INFO]  rxControlStats-2 got 1838 ip.PROTO_CONTROL_2_fwd packets in the correct round and 31 packets in the incorrect round with max_async 1[0m
[1;37m[INFO]  rxControlProcess-2 got 1864 ip.PROTO_CONTROL_1 packets in the correct round and 5 packets in the incorrect round with max_async 5[0m
[1;37m[INFO]  rxControlStats-2 got 2711 ip.PROTO_CONTROL_3 packets in the correct round[0m
[1;37m[INFO]  rxControlProcess-2: Sample out of sync stats[0m
[1;37m[INFO]  rxControlStats-2: Sample out of sync stats[0m
[1;37m[INFO]  rxControlProcess-2: Packet counts by proto[0m
[1;37m[INFO]  rxControlStats-2: Packet counts by proto[0m
[1;37m[INFO]  rxControlProcess-2: 1869 packets of their flows of type ip.PROTO_CONTROL_1[0m
[1;37m[INFO]  rxControlStats-2: 1869 packets of their flows of type ip.PROTO_CONTROL_2_fwd[0m
[1;37m[INFO]  rxData-2: Sync stats for [0m
[1;37m[INFO]  rxControlStats-2: 2711 packets of their flows of type ip.PROTO_CONTROL_3[0m
[1;37m[INFO]  rxData-2: Sample out of sync stats[0m
[1;37m[INFO]  rxData-2: Packet counts by proto[0m
[1;37m[INFO]  rxData-2: 439864 packets of their flows of type ip.PROTO_DATA[0m
